Best Practices in R
…
Specific state to which you might want to return

2

New variable for a new state

3

Apply the same transformation to multiple columns

4

Inspect a subset of columns based on a condition.

# A tibble: 2,000 × 4
   carrier tailnum origin dest 
   <fct>   <fct>   <fct>  <fct>
 1 UA      N75436  EWR    LAS  
 2 VX      N626VA  JFK    LAX  
 3 DL      N3739P  LGA    PBI  
 4 UA      N75436  EWR    MCO  
 5 B6      N630JB  JFK    FLL  
 6 EV      N18101  EWR    RDU  
 7 UA      N807UA  EWR    PDX  
 8 EV      N16149  EWR    MCI  
 9 WN      N936WN  EWR    BNA  
10 FL      N969AT  LGA    ATL  
# ℹ 1,990 more rows
…
head(some_flights$month)

[1] 4 2 8 7 9 1

month.name[head(some_flights$month)]

[1] "April"     "February"  "August"    "July"      "September" "January"  

Match vectors with indices

some_flights |>
  mutate(month_name = month.name[month]) |> 
  select(month_name, month)

# A tibble: 2,000 × 2
   month_name month
   <chr>      <dbl>
 1 April          4
 2 February       2
 3 August         8
 4 July           7
 5 September      9
 6 January        1
 7 August         8
 8 December      12
 9 July           7
10 July           7
# ℹ 1,990 more rows
…
1

Create a column with the names of the months based on the number

2

Make a categorical version of dep_delay.

3

Turn all character columns into factors

Improved example

# A tibble: 2,000 × 4
   month month_name dep_delay dep_delay_cat  
   <dbl> <fct>          <dbl> <fct>          
 1     4 April             61 Late           
 2     2 February          -1 Kind of on time
 3     8 August             0 Kind of on time
 4     7 July               5 Kind of on time
 5     9 September         -2 Kind of on time
 6     1 January            4 Kind of on time
 7     8 August            -7 Kind of on time
 8    12 December          14 Kind of on time
 9     7 July              12 Kind of on time
10     7 July             365 Late           
# ℹ 1,990 more rows
…
some_flights |> 
  mutate(
    across(ends_with("delay"),
    ~ case_when(
      is.na(dep_delay) ~ NA,
      dep_delay < -30 ~ "Early",
      dep_delay < 30 ~ "Kind of on time",
      TRUE ~ "Late"
    ) |> factor(levels = c("Early", "Kind of on time", "Late")),
    .names = "{.col}_cat"
  )

Multiple columns at once

# A tibble: 2,000 × 4
   dep_delay arr_delay dep_delay_cat   arr_delay_cat  
       <dbl>     <dbl> <fct>           <fct>          
 1        61        33 Late            Late           
 2        -1       -50 Kind of on time Early          
 3         0        -6 Kind of on time Kind of on time
 4         5       -12 Kind of on time Kind of on time
 5        -2       -10 Kind of on time Kind of on time
 6         4         4 Kind of on time Kind of on time
 7        -7       -31 Kind of on time Early          
 8        14        28 Kind of on time Kind of on time
 9        12        -5 Kind of on time Kind of on time
10       365       344 Late            Late           
# ℹ 1,990 more rows
…
{readr}

read_csv(cat_file_name)

# A tibble: 2,000 × 8
   carrier flight month_name time_hour           dep_delay arr_delay
   <chr>    <dbl> <chr>      <dttm>                  <dbl>     <dbl>
 1 UA        1168 April      2013-04-12 22:00:00        61        33
 2 VX         407 February   2013-02-28 14:00:00        -1       -50
 3 DL        1174 August     2013-08-22 15:00:00         0        -6
 4 UA        1722 July       2013-07-31 10:00:00         5       -12
 5 B6        1801 September  2013-09-11 20:00:00        -2       -10
 6 EV        4212 January    2013-01-06 20:00:00         4         4
 7 UA         671 August     2013-08-26 11:00:00        -7       -31
 8 EV        4567 December   2013-12-23 15:00:00        14        28
 9 WN         165 July       2013-07-18 17:00:00        12        -5
10 FL         778 July       2013-07-22 22:00:00       365       344
# ℹ 1,990 more rows
# ℹ 2 more variables: dep_delay_cat <chr>, arr_delay_cat <chr>
…
